Local Brewery Twitter Analysis
…
Word sort by count to identify which words used most commonly indicate which emotion MadTree uses in tweets.

Madtree_counts <- Madtree_tidytext %>% 
  count(word, sort = TRUE)
Madtree_counts

## # A tibble: 5,861 x 2
##    word           n
##    <chr>      <int>
##  1 0001f37b     442
##  2 beer         393
##  3 madtree      288
##  4 drinktrees   209
##  5 taproom      201
##  6 cincinnati   173
##  7 beers        145
##  8 amp          126
##  9 we          114
## 10 cans         112
## # ... with 5,851 more rows
…
Word sort by count to identify which words used most commonly indicate which emotion Rhingeist uses in tweets.

Rhinegeist_counts <- Rhinegeist_tidytext %>% 
  count(word, sort = TRUE)
Rhinegeist_counts

## # A tibble: 6,283 x 2
##    word         n
##    <chr>    <int>
##  1 taproom    447
##  2 beer       403
##  3 event      380
##  4 fb         314
##  5 suds       227
##  6 tonight    221
##  7 tomorrow   215
##  8 5          207
##  9 7          195
## 10 day        183
## # ... with 6,273 more rows
…
